…
_Note that `tidyverse` commands use `_` rather than the `.` used in base `R` commands._


___


### Tibbles, A Dataframe by Any Other Name...

The `tidyverse` version of a dataframe (the most common data structure for working with data sets) is called a Tibble.  Again, when using `tidyverse` commands, a dataframe will work, but you should use a tibble to ensure full compatibility and functionality.

When we read in `zip_count_2020-08-18_2020-10-11.xlsx` it was saved into a tibble called `covid_cases_zip`.  Let us take a look at it:

```r
> covid_cases_zip
# A tibble: 6,202 x 2
   LABDATE               zip
   <dttm>              <dbl>
 1 2020-08-18 00:00:00 78413
 2 2020-08-18 00:00:00 78417
 3 2020-08-18 00:00:00 78405
 4 2020-08-18 00:00:00 78405
 5 2020-08-19 00:00:00 78413
 6 2020-08-19 00:00:00 78412
 7 2020-08-19 00:00:00 78408
 8 2020-08-22 00:00:00 78380
 9 2020-08-22 00:00:00 78411
10 2020-08-22 00:00:00 78380
# ... with 6,192 more rows
…
```


---


### Adding and Modifying Tibble Columns with `mutate`

Let us break down what happened in the pipeline above, starting from the line that begins with `mutate`. Note that the `lubridate` package from the extended tidyverse is required for the manipulation of the date.  We already loaded it above.

```r
# tibble before mutate
> read_excel("../data/zip_count_2020-08-18_2020-10-11.xlsx") %>%
+   clean_names() 
# A tibble: 6,202 x 2
   labdate               zip
   <dttm>              <dbl>
 1 2020-08-18 00:00:00 78413
 2 2020-08-18 00:00:00 78417
 3 2020-08-18 00:00:00 78405
 4 2020-08-18 00:00:00 78405
 5 2020-08-19 00:00:00 78413
 6 2020-08-19 00:00:00 78412
 7 2020-08-19 00:00:00 78408
 8 2020-08-22 00:00:00 78380
 9 2020-08-22 00:00:00 78411
10 2020-08-22 00:00:00 78380
# ... with 6,192 more rows

# convert the zip column to a factor using mutate and as_factor
> read_excel("../data/zip_count_2020-08-18_2020-10-11.xlsx") %>%
+   clean_names() %>%
+   mutate(zip = as_factor(zip))
# A tibble: 6,202 x 2
   labdate             zip  
   <dttm>              <fct>
 1 2020-08-18 00:00:00 78413
 2 2020-08-18 00:00:00 78417
 3 2020-08-18 00:00:00 78405
 4 2020-08-18 00:00:00 78405
 5 2020-08-19 00:00:00 78413
 6 2020-08-19 00:00:00 78412
 7 2020-08-19 00:00:00 78408
 8 2020-08-22 00:00:00 78380
 9 2020-08-22 00:00:00 78411
10 2020-08-22 00:00:00 78380
# ... with 6,192 more rows

# additionally make a date column that is formatted as a tidyverse date using mutate and ymd
> read_excel("../data/zip_count_2020-08-18_2020-10-11.xlsx") %>%
+   clean_names() %>%
+   mutate(zip = as_factor(zip),
+          date = ymd(labdate))
# A tibble: 6,202 x 3
   labdate             zip   date      
   <dttm>              <fct> <date>    
 1 2020-08-18 00:00:00 78413 2020-08-18
 2 2020-08-18 00:00:00 78417 2020-08-18
 3 2020-08-18 00:00:00 78405 2020-08-18
 4 2020-08-18 00:00:00 78405 2020-08-18
 5 2020-08-19 00:00:00 78413 2020-08-19
 6 2020-08-19 00:00:00 78412 2020-08-19
 7 2020-08-19 00:00:00 78408 2020-08-19
 8 2020-08-22 00:00:00 78380 2020-08-22
 9 2020-08-22 00:00:00 78411 2020-08-22
10 2020-08-22 00:00:00 78380 2020-08-22
# ... with 6,192 more rows
```
_Note that a factor is a categorical data type that allows you to control the order of the categories in downstream figures and tables. There are several functions dedicated to creating factors and ordering their categories.  Here, we are satisfied with the the default numerical sorting of the zip codes._

___


### Remove and Reorder Columns with `select`

```r
# remove the labdate column
> read_excel("../data/zip_count_2020-08-18_2020-10-11.xlsx") %>%
+   clean_names() %>%
+   mutate(zip = as_factor(zip),
+          date = ymd(labdate)) %>%
+   select(-labdate)
# A tibble: 6,202 x 2
   zip   date      
   <fct> <date>    
 1 78413 2020-08-18
 2 78417 2020-08-18
 3 78405 2020-08-18
 4 78405 2020-08-18
 5 78413 2020-08-19
 6 78412 2020-08-19
 7 78408 2020-08-19
 8 78380 2020-08-22
 9 78411 2020-08-22
10 78380 2020-08-22
# ... with 6,192 more rows
```
…
### Group Tibble Rows by Column Values with `group_by`

The first step in combining rows and/or performing calculations on groups of rows is defining the grouping using `group_by`.  Note the line beginning with `# Groups:` below in the output. 

```r
# group rows by both date and zip code
> read_excel("../data/zip_count_2020-08-18_2020-10-11.xlsx") %>%
+   clean_names() %>%
+   mutate(zip = as_factor(zip),
+          date = ymd(labdate)) %>%
+   select(-labdate) %>%
+   group_by(date, zip)
# A tibble: 6,202 x 2
# Groups:   date, zip [1,142]
   zip   date      
   <fct> <date>    
 1 78413 2020-08-18
 2 78417 2020-08-18
 3 78405 2020-08-18
 4 78405 2020-08-18
 5 78413 2020-08-19
 6 78412 2020-08-19
 7 78408 2020-08-19
 8 78380 2020-08-22
 9 78411 2020-08-22
10 78380 2020-08-22
# ... with 6,192 more rows
```
…
### Performing Row-wise Calculations Based Upon the Groupings with `summarise`

Using the `summarise` command, we can perform row-wise calculations based upon their groupings. We effectively are changing the smallest unit of observation with this command, and thus it wil produce a tibble with fewer rows.  Before this command, the smallest unit of observation was a single person who tested postitive for COVID in a particular zip code on a particular date.  After this, the unit of observation will be the number of people that tested positive for COVID in a particular zip code on a particular date.

```r
# count the number of COVID cases by the groupings (cate x zip) using summarise() and n()
> read_excel("../data/zip_count_2020-08-18_2020-10-11.xlsx") %>%
+   clean_names() %>%
+   mutate(zip = as_factor(zip),
+          date = ymd(labdate)) %>%
+   select(-labdate) %>%
+   group_by(date, zip) %>%
+   summarise(new_cases = n())
`summarise()` regrouping output by 'date' (override with `.groups` argument)
# A tibble: 1,142 x 3
# Groups:   date [91]
   date       zip   new_cases
   <date>     <fct>     <int>
 1 2020-07-13 78339         2
 2 2020-07-13 78343         2
 3 2020-07-13 78380        20
 4 2020-07-13 78401         1
 5 2020-07-13 78404         2
 6 2020-07-13 78405         7
 7 2020-07-13 78406         1
 8 2020-07-13 78407         2
 9 2020-07-13 78408         5
10 2020-07-13 78409         6
# ... with 1,132 more rows
```
…
The empty tiles represent zip code x date combinations where nobody tested positive for COVID.  Note that some zip codes have very view data points. We will remove some of these for some of the figure that follow because they break they cause the `ggplot` code to break otherwise.

---


### More Visual Exploration With a Scatterplot


Let us make a scatter plot of the total number of new cases per day across all zip codes. Note that we take advantage of the grouping we applied to the tibble previously and use `summarise` to sum up all new cases on each date.

```r 
> covid_cases_zip %>%
+   summarise(new_cases = sum(new_cases))
`summarise()` ungrouping output (override with `.groups` argument)
# A tibble: 91 x 2
   date       new_cases
   <date>         <int>
 1 2020-07-13       179
 2 2020-07-14       265
 3 2020-07-15       331
 4 2020-07-16       192
 5 2020-07-17       218
 6 2020-07-18       179
 7 2020-07-19       109
 8 2020-07-20       149
 9 2020-07-21       170
10 2020-07-22       299
# ... with 81 more rows
…
